Occam1D | PrISM.jl
…
MTResponse{Vector{Float64}, Vector{Float64}}([1.3875320046244939, 1.0850483309402976, 1.0122693258969069, 1.3196075220402887, 2.1288222765105043, 3.742606524153418, 6.672376048265344, 11.565463875338217, 18.969398177501372, 28.926252238807752, 40.67761152951152, 52.85779579512388, 64.10592476083384, 73.57441655864378, 81.0176955269695, 86.59638574119714, 90.64544990893303, 93.52247812294203, 95.53828164509213], [5.739170477266787, 5.739170477266787, 5.739170477266787, 5.739170477266787, 5.739170477266787, 5.739170477266787, 5.739170477266787, 5.739170477266787, 5.739170477266787, 5.739170477266787, 5.739170477266787, 5.739170477266787, 5.739170477266787, 5.739170477266787, 5.739170477266787, 5.739170477266787, 5.739170477266787, 5.739170477266787, 5.739170477266787])

We need to define a data covariance matrix Cd and an initial model. Let's assume gaussian noise in this case, and choose an initial model a half-space of 100 Ωm.
julia
C_d = diagm(inv.([err_resp.ρₐ..., err_resp.ϕ...])) .^ 2; # weight matrix

# initial model
h_test = 10 .^ range(0.0, 5.0; length=50)
ρ_test = 2 .* ones(length(h_test) + 1)

m_occam = MTModel(ρ_test, h_test);

1D MT Model
┌───────┬───────┬────────┬────────┐
│ Layer │ log-ρ │      h │      z │
│       │  [Ωm] │    [m] │    [m] │
├───────┼───────┼────────┼────────┤
│     1 │  2.00 │   1.00 │   1.00 │
│     2 │  2.00 │   1.26 │   2.27 │
│     3 │  2.00 │   1.60 │   3.87 │
│     4 │  2.00 │   2.02 │   5.89 │
│     5 │  2.00 │   2.56 │   8.45 │
│     6 │  2.00 │   3.24 │  11.69 │
│     7 │  2.00 │   4.09 │  15.78 │
│     8 │  2.00 │   5.18 │  20.96 │
│     9 │  2.00 │   6.55 │  27.51 │
│    10 │  2.00 │   8.29 │  35.80 │
│    11 │  2.00 │  10.48 │  46.28 │
│    12 │  2.00 │  13.26 │  59.54 │
│    13 │  2.00 │  16.77 │  76.30 │
│    14 │  2.00 │  21.21 │  97.51 │
│   ⋮   │   ⋮   │   ⋮    │   ⋮    │
└───────┴───────┴────────┴────────┘
                    37 rows omitted

The final result will be stored in the same variable m_occam. All we need to do now is specify using Occam and then calling inverse!.
Note
Using Occam, you also have the option to perform a smoothing step. Once the model has achieved the threshold misfit, it is smoothened until it fits the data just about the threshold misfit.

julia
alg_cache = Occam(; μgrid=[1e-2, 1e6])
inverse!(
    m_occam, resp, ω, alg_cache; W=C_d, max_iters=50, verbose=true, smoothing_step=true)

PrISM.return_code{MTModel{Vector{Float64}, Vector{Float64}}}(true, (μ = 16.68184405948691,), 1D MT Model
┌───────┬───────┬────────┬────────┐
│ Layer │ log-ρ │      h │      z │
│       │  [Ωm] │    [m] │    [m] │
├───────┼───────┼────────┼────────┤
│     1 │  1.07 │   1.00 │   1.00 │
│     2 │  1.07 │   1.26 │   2.27 │
│     3 │  1.07 │   1.60 │   3.87 │
│     4 │  1.07 │   2.02 │   5.89 │
│     5 │  1.07 │   2.56 │   8.45 │
│     6 │  1.07 │   3.24 │  11.69 │
│     7 │  1.07 │   4.09 │  15.78 │
│     8 │  1.07 │   5.18 │  20.96 │
│     9 │  1.07 │   6.55 │  27.51 │
│    10 │  1.07 │   8.29 │  35.80 │
│    11 │  1.07 │  10.48 │  46.28 │
│    12 │  1.06 │  13.26 │  59.54 │
│    13 │  1.06 │  16.77 │  76.30 │
│    14 │  1.06 │  21.21 │  97.51 │
│   ⋮   │   ⋮   │   ⋮    │   ⋮    │
└───────┴───────┴────────┴────────┘
                    37 rows omitted
…
C_d = diagm(inv.(err_resp.c)) .^ 2

and perform the inversion:
julia
alg_cache = Occam(; μgrid=[1e-2, 1e2])
rw_bounds = transform_utils(
    x -> SubsurfaceCore.sigmoid(x, 3.0, 5.0), x -> SubsurfaceCore.inverse_sigmoid(x, 3.0, 5.0))
retcode = inverse!(m_occam, resp, t, alg_cache; W=C_d, max_iters=100,
    verbose=true, model_trans_utils=rw_bounds);

PrISM.return_code{RWModel{Vector{Float64}, Vector{Float64}, Vector{Float64}, Vector{Float64}}}(true, (μ = 0.010290168351473356,), 1D Rayleigh Wave Model
┌───────┬────────┬─────────┬──────────┬──────────┬────────┐
│ Layer │     vₛ │       h │        z │        ρ │     vₚ │
│       │ [km/s] │     [m] │      [m] │ [kg⋅m⁻³] │ [km/s] │
├───────┼────────┼─────────┼──────────┼──────────┼────────┤
│     1 │   3.10 │ 2500.00 │  2500.00 │   3000.0 │ 7000.0 │
│     2 │   3.11 │ 2500.00 │  5000.00 │   3000.0 │ 7000.0 │
│     3 │   3.09 │ 2500.00 │  7500.00 │   3000.0 │ 7000.0 │
│     4 │   3.05 │ 2500.00 │ 10000.00 │   3000.0 │ 7000.0 │
│     5 │   3.10 │ 2500.00 │ 12500.00 │   3000.0 │ 7000.0 │
│     6 │   3.18 │ 2500.00 │ 15000.00 │   3000.0 │ 7000.0 │
│     7 │   3.32 │ 2500.00 │ 17500.00 │   3000.0 │ 7000.0 │
│     8 │   3.52 │ 2500.00 │ 20000.00 │   3000.0 │ 7000.0 │
│     9 │   3.74 │ 2500.00 │ 22500.00 │   3000.0 │ 7000.0 │
│    10 │   3.90 │ 2500.00 │ 25000.00 │   3000.0 │ 7000.0 │
│    11 │   4.00 │ 2500.00 │ 27500.00 │   3000.0 │ 7000.0 │
│    12 │   4.01 │ 2500.00 │ 30000.00 │   3000.0 │ 7000.0 │
│    13 │   4.03 │ 2500.00 │ 32500.00 │   3000.0 │ 7000.0 │
│    14 │   4.04 │ 2500.00 │ 35000.00 │   3000.0 │ 7000.0 │
│   ⋮   │   ⋮    │    ⋮    │    ⋮     │    ⋮     │   ⋮    │
└───────┴────────┴─────────┴──────────┴──────────┴────────┘
                                            37 rows omitted
…
